{"page":1,"total_results":67,"total_pages":4,"results":[{"original_name":"Marvel's Daredevil","genre_ids":[28,80],"name":"Здирниця","popularity":30.109,"origin_country":["US"],"vote_count":1785,"first_air_date":"2015-04-10","backdrop_path":"/qsnXwGS7KBbX4JLqHvICngtR8qg.jpg","original_language":"en","id":61889,"vote_average":7.9,"overview":"Осліплений з дитинства (через нещасний випадок) адвокат Метт Мердок під ім'ям «Здирниця» використовує інші, неймовірно посилені, почуття та бійцівські навички для боротьби зі злочинністю на вулицях нічної пекельної кухні.","poster_path":"/c47xj2YlMKPEMbLXlLriZaRnlXu.jpg"},{"original_name":"Marvel's Runaways","id":67466,"name":"Втікачі","popularity":20.73,"vote_count":241,"vote_average":7.8,"first_air_date":"2017-11-21","poster_path":"/w92yjz1sYzPJdpc7fIAGJJt9nWr.jpg","genre_ids":[10759,80,18,10765],"original_language":"en","backdrop_path":"/7PYAUaJzzUVxS4xiJHFe338vJd1.jpg","overview":"Історія шести підлітків, які випадково дізнаються, що їхні батьки входять до складу групи суперлиходіїв під назвою «Прайд». Ця група керує злочинним світом Лос-Анджелеса. Діти дізнаються, що кожен з них, як і їхні батьки, має якісь здібності (а хтось і зовсім не є людиною). Підлітки вирішують, що не готові прийняти таку долю і намагаються втекти від своїх батьків.","origin_country":["US"]},{"original_name":"Marvel's Jessica Jones","id":38472,"name":"Джессіка Джонс","popularity":32.033,"vote_count":1103,"vote_average":7.6,"first_air_date":"2015-11-20","poster_path":"/7K54OG3m8AJCC9yUCOc4DHG3kmw.jpg","genre_ids":[10765,18],"original_language":"en","backdrop_path":"/57JFnZqpG5OLgHdZY7Zf9dKcZ5U.jpg","overview":"Після трагічних подій, що обірвали коротку супергеройську кар'єру Джессіки Джонс, дівчина намагається відновити своє особисте життя і почати кар'єру приватного детектива, але все змінюється, коли в життя колишньої героїні вривається чоловік з її минулого, здатний контролювати розум людей.","origin_country":["US"]},{"original_name":"Marvel's Inhumans","genre_ids":[18,10759,10765],"name":"Надлюди","popularity":15.679,"origin_country":["US"],"vote_count":201,"first_air_date":"2017-09-29","backdrop_path":"/9GNdPoCSzWYeo2eYKFVLvzcG6Wg.jpg","original_language":"en","id":68716,"vote_average":5.5,"overview":"Історія Королівської сім'ї, що належить до раси Надлюдей. Внаслідок військового перевороту члени королівського прізвища на чолі з Чорним Громом змушені залишити свій будинок у місячному місті Аттілан і бігти на острови, як надалі виявляється — Гаваї, де їм належить рятувати не тільки себе, а й увесь світ від загибелі.","poster_path":"/y3aFlpB4Vwn1Qz0WOTUOTf6GmPl.jpg"},{"original_name":"Marvel's The Punisher","id":67178,"name":"Каратель","popularity":23.65,"vote_count":767,"vote_average":8.1,"first_air_date":"2017-11-17","poster_path":"/7Zyx8kQr2nEbtSl8XV7ljio4vff.jpg","genre_ids":[10759,80,18],"original_language":"en","backdrop_path":"/sRr5NdPic882T24dNwkiw2VMst6.jpg","overview":"Після того, як родину Френка Касла було вбито під час перестрілки кількох банд Нью-Йорка, він вирішує помститися і починає полювання на злочинців міста. У злочинному світі він стає відомий як Каратель.","origin_country":["US"]},{"original_name":"Marvel's Agent Carter","genre_ids":[28,12],"name":"Агент Картер","popularity":19.374,"origin_country":["US"],"vote_count":556,"first_air_date":"2015-01-06","backdrop_path":"/ryksnIn006p7lsd83L9Za20TePv.jpg","original_language":"en","id":61550,"vote_average":7.6,"overview":"У 1946 році світ завдав Пеггі серйозного удару, коли вона опиняється в незручному для неї положенні з поверненням додому чоловіків із битв за кордоном. Працюючи на секретну організацію СНР (Стратегічний Науковий Резерв), Пеггі має знайти баланс між адміністративною роботою та секретними місіями для Говарда Старка, одночасно намагаючись жити нормальним життям самотньої жінки в Америці після втрати кохання всього її життя Стіва Роджерса.","poster_path":"/dEbTdu1sytRR4GtrMX5tRiNgLU3.jpg"},{"original_name":"Marvel's Luke Cage","genre_ids":[80,18,10759,10765],"name":"Люк Кейдж","popularity":17.666,"origin_country":["US"],"vote_count":803,"first_air_date":"2016-09-30","backdrop_path":"/j7AHhA0bH5FlVPVMFcKNOLC4PMv.jpg","original_language":"en","id":62126,"vote_average":7,"overview":"На перший погляд, Люк Кейдж — пересічний мовчазний і замкнутий житель Гарлема. Він мешкає в скромній холостяцькій квартирці, намагається не заводити знайомств, навіть роботу вибирає найнепримітнішу — прибирача в перукарні або посудомийника в нічному клубі. Насправді здоров'я приховує дивовижну таємницю — кримінальне минуле принесло йому не лише масу проблем і трагічну втрату коханої, а й безмежну фізичну силу разом із надміцною шкірою. Люк намагається бути таким, як усі, але одного разу все одно виявляється втягнутим у кримінальні розбірки, за якими стоїть могутній злочинний авторитет Корнелл Стоукс на прізвисько Коттонмут. Стоукс і є власником популярного закладу «Гарлемський рай», в якому працює Люк. Однак він використовує легальний бізнес як прикриття торгівлі зброєю. Незабаром Кейдж розуміє, що цей лиходій, заручившись підтримкою кузини-політика Мерай Діллард, контролює весь Гарлем, через що страждають прості жителі. Люк вирішує, що, маючи таку силу, він не має права залишатися осторонь і далі ховатися від свого минулого. Герой кидає виклик бандитам, чия незаконна діяльність ламає життя людей у ​​його рідному районі. Але чи зможе Кейдж перемогти це зло? Адже навіть у такої сильної людини, яка без зусиль ламає кістки ворогам і ловить кулі голими руками, є свої страхи та демони, що роздирають її на частини…","poster_path":"/xOCM4VgKtjGbCjtKSiJ7W9xYwsB.jpg"},{"original_name":"Marvel's The Defenders","id":62285,"name":"Захисники","popularity":12.806,"vote_count":530,"vote_average":7.1,"first_air_date":"2017-08-18","poster_path":"/gg2FoujYjmG2Oha24sAhd9aogvI.jpg","genre_ids":[10759,80,10765],"original_language":"en","backdrop_path":"/7eV2vDrj1AwlTffUud66v9o0Ytq.jpg","overview":"Шибениця, Джессіка Джонс, Люк Кейдж і Залізний Кулак об'єднуються для боротьби зі злочинністю Нью-Йорка.","origin_country":["US"]},{"original_name":"Marvel Rising: Initiation","genre_ids":[16,10759],"name":"Marvel Rising: Initiation","popularity":3.163,"origin_country":["US"],"vote_count":9,"first_air_date":"2018-08-13","backdrop_path":"/gC3tTz9wqXcmlQhEy1NilvVUVpJ.jpg","original_language":"en","id":83043,"vote_average":8.7,"overview":"","poster_path":"/nanDD3g6hF7JcrckygjxCPqViPT.jpg"},{"original_name":"Marvel's Avengers Assemble","genre_ids":[16,10759],"name":"Команда «Месники»","popularity":15.815,"origin_country":["US"],"vote_count":0,"first_air_date":"2013-11-09","backdrop_path":"/mGHdzDAyMbLaHdNN1Q9H4BgPrP3.jpg","original_language":"en","id":59427,"vote_average":0,"overview":"Серіал возз'єднає найпопулярнішу команду супергероїв: Залізну Людину, Халк, Капітан Америка, Тор, Соколине Око, Чорна Вдова, а також новачок Сокіл. Вперше в історії анімації команда збереться в такому складі. Ведені Залізною Людиною, герої тренуються і живуть разом у своїй новій штаб-квартирі в Башті Мстителів. Найнебезпечніші лиходії планети не мають жодного шансу, коли йдеться про месників. Зупинити Доктора Дума або відвоювати Асгард, захистити Нью-Йорк від армії Атуми або перемогти вампірів Дракули — Месники повинні працювати в команді, щоб перемогти.","poster_path":"/aVYPq7FSvsdNQOXVIFnndXJPCXn.jpg"},{"original_name":"Marvel's Agents of S.H.I.E.L.D.","genre_ids":[18,10759,10765],"name":"Агенти «Щ.І.Т.»","popularity":76.961,"origin_country":["US"],"vote_count":1576,"first_air_date":"2013-09-24","backdrop_path":"/80BRASQnT9KT7BkFeEI0EdeRIF3.jpg","original_language":"en","id":1403,"vote_average":6.9,"overview":"Агент Філ Колсон набирає спеціальну групу для боротьби зі злочинністю після подій фільму «Месники». Новоспеченій команді доведеться не тільки зійтись в оперативній, а також дослідницькій роботі, а й зійтись характерами, щоб дати відсіч усім ворогам організації «Щ.І.Т.»","poster_path":"/vSt6VdhvT9gUa5wc6rkYYAlJpQJ.jpg"},{"original_name":"The Marvel Super Heroes","genre_ids":[16,10759,10762,10765],"name":"The Marvel Super Heroes","popularity":3.639,"origin_country":["CA","US"],"vote_count":2,"first_air_date":"1966-09-05","backdrop_path":"/vhbMTE6UVbIoyiD262wRYwFiNBa.jpg","original_language":"en","id":2164,"vote_average":7.8,"overview":"","poster_path":null},{"original_name":"Marvel's Cloak & Dagger","id":66190,"name":"Плащ та Кинжал","popularity":14.497,"vote_count":224,"vote_average":7.4,"first_air_date":"2018-06-07","poster_path":"/oa50wfpa5Ip1AdPw17epdHuqyq1.jpg","genre_ids":[10759,18,10765],"original_language":"en","backdrop_path":"/iEXdA9n9R7Cne2ZY8PQfAjiGyFP.jpg","overview":"Тенді Боуен і Тайрон Джонсон — двоє підлітків із різних верств суспільства, які нещодавно дізналися про свої надздібності. Тенді може випромінювати світлові кинджали, а Тайрон може поглинати інших у темряву. Вони швидко розуміють, що разом їм краще, ніж порізно, але їхні почуття стосовно один одного роблять їх уже складний світ ще більш заплутаним.","origin_country":["US"]},{"original_name":"Marvel's Spider-Man","id":72705,"name":"Людина-павук","popularity":13.716,"vote_count":34,"vote_average":7.4,"first_air_date":"2017-08-19","poster_path":"/dKdcyyHUR5WTMnrbPdYN5y9xPVp.jpg","genre_ids":[16,10765],"original_language":"en","backdrop_path":"/9zIFxEiurX1zVuBffHjwFRJTXDT.jpg","overview":"Розумний підліток на ім'я Пітер Паркер укушений радіоактивним павуком у шкільній поїздці до Оскорпа та отримує супер-сили. Він стає героєм на ім'я Людина-Павук після смерті свого дядька Бена, і він повинен пристосуватися до нового способу життя.","origin_country":["US"]},{"original_name":"Marvel's Iron Fist","genre_ids":[18,10759,10765],"name":"Залізний кулак","popularity":6.842,"origin_country":["US"],"vote_count":1022,"first_air_date":"2017-03-17","backdrop_path":"/xHCfWGlxwbtMeeOnTvxUCZRGnkk.jpg","original_language":"en","id":62127,"vote_average":6.3,"overview":"Через роки після зникнення, Деніел Ренд повертається в Нью-Йорк і починає боротьбу з криміналом, використовуючи свої неймовірні навички кунг-фу і здатність викликати силу Залізного кулака.","poster_path":"/hu9eGudTohsMTChNbqAlXuiKeIU.jpg"},{"original_name":"Ms. Marvel","genre_ids":[18,10759,10765],"name":"Міс Марвел","popularity":1.126,"origin_country":[],"vote_count":0,"first_air_date":"2021-12-31","backdrop_path":"/qBFixm2UtNUrmOtGbBfwwNw94ir.jpg","original_language":"en","id":92782,"vote_average":0,"overview":"Сюжет серіалу обертається довкола дівчини з Нью-Джерсі Камали Хан, яка отримує надздібності.","poster_path":"/7UGKZ5c0HSwro6n7GChl8uyaIfy.jpg"},{"original_name":"Marvel Future Avengers","genre_ids":[16],"name":"Marvel Future Avengers","popularity":1.07,"origin_country":[],"vote_count":1,"first_air_date":"","backdrop_path":"/y9FhwCVyIqonm2XqwGrFtmalnkv.jpg","original_language":"ja","id":91278,"vote_average":10,"overview":"","poster_path":"/vtRxFVFa4MuhmWtIjbrp1yrxq8g.jpg"},{"original_name":"Marvel's Guardians of the Galaxy","genre_ids":[16,10759],"name":"Вартові Галактики","popularity":12.102,"origin_country":["US"],"vote_count":33,"first_air_date":"2015-09-05","backdrop_path":"/k9WCVeb0cm1gUNkorZXfpF1nsw4.jpg","original_language":"en","id":63181,"vote_average":7.6,"overview":"Перш ніж стати Стражами, кожному з них довелося подолати чимало труднощів на своєму шляху. \n\n \n\n"Вартові Галактики" - анімаційний серіал, заснований на серії коміксів Marvel. \n\n \n\nПітер Квілл, зухвалий авантюрист і шукач пригод, якого глядачі фільму запам'ятали як Зоряного Лорда, збирається рятувати всесвіт від різного роду погроз і поєднує свої зусилля з квартетом дуже різношерстих персонажів.","poster_path":"/oXwe3wVhdvvxiixL9UJf6PgBybZ.jpg"},{"original_name":"LEGO MARVEL Super Heroes: Maximum Overload","id":62576,"name":"LEGO MARVEL Super Heroes: Maximum Overload","popularity":1.938,"vote_count":4,"vote_average":7.4,"first_air_date":"2013-11-05","poster_path":null,"genre_ids":[16,10762],"original_language":"en","backdrop_path":null,"overview":"","origin_country":["US"]},{"original_name":"Marvel Mash-Up","genre_ids":[],"name":"Marvel Mash-Up","popularity":0.6,"origin_country":["US"],"vote_count":1,"first_air_date":"2012-01-04","backdrop_path":null,"original_language":"en","id":57083,"vote_average":8,"overview":"","poster_path":null}]}